{
  "schemaVersion": 1,
  "id": "taleofkingdoms",
  "version": "${version}",

  "name": "Tale of Kingdoms: A new Conquest",
  "description": "This mod is in alpha. Use at your own risk! \n\nThe Tale of Kingdoms mod, revived.",
  "authors": [
    "SamB440"
  ],
  "contributors": [
    "Marackai",
    "Aksel0206",
    "PyroPyxel",
    "Sheepguard",
    "michaelb229"
  ],
  "contact": {
    "homepage": "https://www.convallyria.com",
    "sources": "https://gitlab.com/SamB440/tale-of-kingdoms",
    "issues": "https://gitlab.com/SamB440/tale-of-kingdoms/issues"
  },

  "icon": "assets/taleofkingdoms/logo.png",

  "environment": "*",
  "entrypoints": {
    "main": [
      "net.islandearth.taleofkingdoms.TaleOfKingdoms"
    ],
    "client": [
      "net.islandearth.taleofkingdoms.client.TaleOfKingdomsClient"
    ]
  },
  "mixins": [
    "taleofkingdoms.mixins.json"
  ],

  "depends": {
    "fabricloader": ">=0.7.4",
    "fabric": "*",
    "minecraft": "1.16.x",
    "worldedit": ">=7.2.0-beta-02+d10d7d6"
  },
  "suggests": {
    "flamingo": "*"
  }
}